sapi_pwm.c:126:13:pwmInitTimers	8	static
sapi_pwm.c:135:15:pwmAttach	24	static
sapi_pwm.c:157:15:pwmDetach	24	static
sapi_pwm.c:179:8:pwmWrite	24	static
sapi_pwm.c:200:9:pwmRead	24	static
sapi_pwm.c:221:8:pwmConfig	24	static
sapi_pwm.c:256:9:pwmIsAttached	24	static
